…
  # correct the measurement/ recording errors
  mutate(
    raisin = ifelse(raisin < 10, raisin + 10, raisin),
    std = ifelse(std == 29.6250, 20 + 15.4/15, std)
  )

weight_df 
```

    ## # A tibble: 361 × 5
    ##    date       raisin simone gagne   std
    ##    <chr>       <dbl>  <dbl> <dbl> <dbl>
    ##  1 2018-08-12   19.8   10.9  10.6  NA  
    ##  2 2018-08-19   20.2   11.1  10.8  20.9
    ##  3 2018-08-22   20.2   11.2  10.8  20.9
    ##  4 2018-08-24   19.8   11.2  11.1  20.9
    ##  5 2018-08-27   19.4   10.5  10.4  20.9
    ##  6 2018-08-28   NA     NA    NA    NA  
    ##  7 2018-08-29   19.4   11    11.1  20.9
    ##  8 2018-08-30   NA     NA    NA    NA  
    ##  9 2018-08-31   19.6   11    10.8  20.9
    ## 10 2018-09-01   NA     NA    NA    NA  
    ## # … with 351 more rows

The second dataset contains the notes and date on which they are
written.

``` r
note_df = 
  select(total_df, date, x6) %>%
  rename("note" = "x6") %>%
  # drop the dates without written notes
  drop_na()
note_df
```

    ## # A tibble: 26 × 2
    ##    date       note                                                              
    ##    <chr>      <chr>                                                             
    ##  1 2018-08-27 Right after leaving for 3 days at Weber's                         
    ##  2 2018-09-04 at camp bow wow                                                   
    ##  3 2018-10-01 dogs at Webers from Sept 18-30                                    
    ##  4 2018-10-09 dogs at Webers from Oct 5-8                                       
    ##  5 2018-10-16 on 10/15 all had hair cuts                                        
    ##  6 2018-10-22 dogs at Webers from Oct 18-22                                     
    ##  7 2018-11-18 dogs at Webers from Nov 10-17                                     
    ##  8 2019-01-08 Simone/Gagne  at Webers from Dec 20-Jan 4, Raisin at PC Dec 20-Ja…
    ##  9 2019-09-06 Gagne died 9/8/2019                                               
    ## 10 2019-11-04 on vacation? Dogs at kennel?                                      
    ## # … with 16 more rows
…
``` r
#the number of distinct date
weight_data %>% 
  select(date)
```

    ## # A tibble: 361 × 1
    ##    date      
    ##    <date>    
    ##  1 2018-08-12
    ##  2 2018-08-19
    ##  3 2018-08-22
    ##  4 2018-08-24
    ##  5 2018-08-27
    ##  6 2018-08-28
    ##  7 2018-08-29
    ##  8 2018-08-30
    ##  9 2018-08-31
    ## 10 2018-09-01
    ## # … with 351 more rows
…
